CHUFFED|GECODE|IZPLUS|_GECODE+S|__G-STRINGS
anbn|1.3|31.15|483.83|129.32|T/O|T/O|16.45|T/O|T/O|29.46|T/O|T/O|0.0|0.0|0.0
chunk_split|T/O|10.44|26.33|12.93|27.13|61.91|11.56|123.85|116.61|182.24|T/O|T/O|0.01|0.01|0.01
hamming-mod|1.69|21.98|61.27|0.77|9.62|19.58|1.89|34.59|49.95|0.12|14.09|129.8|0.0|0.0|0.0
levenshtein|0.89|3.03|63.67|0.36|1.26|18.05|2.64|9.19|306.39|0.0|0.0|0.0|0.02|0.02|0.02
sql|T/O|N/A|N/A|375.17|982.01|T/O|613.16|T/O|N/A|0.2|23.6|299.99|N/A|N/A|N/A
string_replace|13.32|20.62|T/O|T/O|T/O|N/A|32.6|159.35|T/O|1.43|248.77|T/O|0.01|0.01|0.01
